id	topic_id	thread_id	type	formula
q_1	A.1	3062860	title	c
q_2	A.1	3062860	title	f(x) = \frac{x^2 + x + c}{x^2 + 2x + c}
q_3	A.1	3062860	title	[-1, -\frac{1}{3}]
q_4	A.1	3062860	question	f(x)= \frac{x^2 + x + c}{x^2 + 2x + c}
q_5	A.1	3062860	question	c
q_6	A.1	3062860	question	f(x)
q_7	A.1	3062860	question	[-1, -\frac{1}{3}]
q_8	A.2	3069579	title	f'(x)=f(x+1)
q_9	A.2	3069579	question	\frac{df}{dx} = f(x+1)
